// Gmsh project created on Mon Sep  2 10:32:14 2019
Point(1) = {0, 0, 0, 0.4};
Point(2) = {1, 0, 0, 0.4};
Point(3) = {0, 1, 0, 0.4};
Point(4) = {-1, 0, 0, 0.4};
Point(5) = {0, -1, 0, 0.4};
Point(6) = {0, 0, 1, 0.4};
Point(7) = {0, 0, -1, 0.4};
Circle(1) = {4, 1, 5};
Circle(2) = {5, 1, 2};
Circle(3) = {2, 1, 3};
Circle(4) = {3, 1, 4};
Line Loop(5) = {1, 2, 3, 4};
Plane Surface(6) = {5};
Circle(7) = {6, 1, 5};
Circle(8) = {5, 1, 7};
Circle(9) = {7, 1, 3};
Circle(10) = {3, 1, 6};
Circle(11) = {4, 1, 7};
Circle(12) = {7, 1, 2};
Circle(13) = {2, 1, 6};
Circle(14) = {6, 1, 4};
Line Loop(15) = {14, -4, 10};
Ruled Surface(16) = {15};
Line Loop(17) = {7, -1, -14};
Ruled Surface(18) = {17};
Line Loop(19) = {7, 2, 13};
Ruled Surface(20) = {19};
Line Loop(21) = {13, -10, -3};
Ruled Surface(22) = {21};
Line Loop(23) = {8, -11, 1};
Ruled Surface(24) = {23};
Line Loop(25) = {8, 12, -2};
Ruled Surface(26) = {25};
Line Loop(27) = {12, 3, -9};
Ruled Surface(28) = {27};
Line Loop(29) = {11, 9, 4};
Ruled Surface(30) = {29};
Surface Loop(31) = {30, 24, 26, 28, 18, 20, 22, 16};
Volume(32) = {31};
