/home/marshall/Documents/bernstein3d/venv/bin/python /home/marshall/Documents/bernstein3d/GrayScott/grayscott.py
Delta t of 1
Info    : Running 'gmsh -3 ../sphere_2.geo' [Gmsh 2.10.1, 1 node, max. 1 thread]
Info    : Started on Tue Aug 11 16:10:22 2020
Info    : Reading '../sphere_2.geo'...
Info    : Done reading '../sphere_2.geo'
Info    : Meshing 1D...
Info    : Meshing curve 1 (Circle)
Info    : Meshing curve 2 (Circle)
Info    : Meshing curve 3 (Circle)
Info    : Meshing curve 4 (Circle)
Info    : Meshing curve 5 (Circle)
Info    : Meshing curve 6 (Circle)
Info    : Meshing curve 7 (Circle)
Info    : Meshing curve 8 (Circle)
Info    : Done meshing 1D (0 s)
Info    : Meshing 2D...
Info    : Meshing surface 10 (Ruled surface, MeshAdapt)
Info    : Meshing surface 12 (Ruled surface, MeshAdapt)
Info    : Meshing surface 14 (Ruled surface, MeshAdapt)
Info    : Meshing surface 16 (Ruled surface, MeshAdapt)
Info    : Meshing surface 18 (Ruled surface, MeshAdapt)
Info    : Done meshing 2D (0.019253 s)
Info    : Meshing 3D...
Info    : Delaunay Meshing 1 volumes with 1 connected components
Info    : Meshing volume 20 (Delaunay)
Delaunizing vertices...
Delaunay seconds:  0.000173
Creating surface mesh ...
Surface mesh seconds:  5.5e-05
Recovering boundaries...
Boundary recovery seconds:  6.6e-05
Removing exterior tetrahedra ...
Exterior tets removal seconds:  1.3e-05
Recovering Delaunayness...
Delaunay recovery seconds:  3.3e-05
Optimizing mesh...
Optimization seconds:  2.2e-05

Writing nodes.
Writing elements.
Writing faces.
Writing edges.

Output seconds:  2.9e-05
Total running seconds:  0.00044

Statistics:

  Input points: 30
  Input facets: 56
  Input segments: 84
  Input holes: 0
  Input regions: 0

  Mesh points: 30
  Mesh tetrahedra: 60
  Mesh faces: 148
  Mesh edges: 117
  Mesh faces on facets: 56
  Mesh edges on segments: 84

Info    : 30 points 117 edges and 56 faces in the initial mesh
Info    : Found region 20
Info    : 0 points created - Worst tet radius is 0.855876 (PTS removed 0 0)
Info    : 3D point insertion terminated (30 points created):
Info    :  - 0 Delaunay cavities modified for star shapeness
Info    :  - 0 points could not be inserted
Info    :  - 60 tetrahedra created in 0 sec. (-2147483648 tets/sec.)
Info    : Done meshing 3D (0 s)
Info    : 31 vertices 146 elements
Info    : Writing '../sphere_2.msh'...
Info    : Done writing '../sphere_2.msh'
Info    : Stopped on Tue Aug 11 16:10:22 2020
Total elements: 60 Size: 885
p 4 Median iteration count 14.0 13 18
Info    : Running 'gmsh -3 ../sphere_2.geo' [Gmsh 2.10.1, 1 node, max. 1 thread]
Info    : Started on Tue Aug 11 16:10:35 2020
Info    : Reading '../sphere_2.geo'...
Info    : Done reading '../sphere_2.geo'
Info    : Meshing 1D...
Info    : Meshing curve 1 (Circle)
Info    : Meshing curve 2 (Circle)
Info    : Meshing curve 3 (Circle)
Info    : Meshing curve 4 (Circle)
Info    : Meshing curve 5 (Circle)
Info    : Meshing curve 6 (Circle)
Info    : Meshing curve 7 (Circle)
Info    : Meshing curve 8 (Circle)
Info    : Done meshing 1D (0 s)
Info    : Meshing 2D...
Info    : Meshing surface 10 (Ruled surface, MeshAdapt)
Info    : Meshing surface 12 (Ruled surface, MeshAdapt)
Info    : Meshing surface 14 (Ruled surface, MeshAdapt)
Info    : Meshing surface 16 (Ruled surface, MeshAdapt)
Info    : Meshing surface 18 (Ruled surface, MeshAdapt)
Info    : Done meshing 2D (0.0190909 s)
Info    : Meshing 3D...
Info    : Delaunay Meshing 1 volumes with 1 connected components
Info    : Meshing volume 20 (Delaunay)
Delaunizing vertices...
Delaunay seconds:  0.000193
Creating surface mesh ...
Surface mesh seconds:  6.2e-05
Recovering boundaries...
Boundary recovery seconds:  7e-05
Removing exterior tetrahedra ...
Exterior tets removal seconds:  1.4e-05
Recovering Delaunayness...
Delaunay recovery seconds:  3.9e-05
Optimizing mesh...
Optimization seconds:  2.3e-05

Writing nodes.
Writing elements.
Writing faces.
Writing edges.

Output seconds:  2.7e-05
Total running seconds:  0.000474

Statistics:

  Input points: 30
  Input facets: 56
  Input segments: 84
  Input holes: 0
  Input regions: 0

  Mesh points: 30
  Mesh tetrahedra: 60
  Mesh faces: 148
  Mesh edges: 117
  Mesh faces on facets: 56
  Mesh edges on segments: 84

Info    : 30 points 117 edges and 56 faces in the initial mesh
Info    : Found region 20
Info    : 0 points created - Worst tet radius is 0.855876 (PTS removed 0 0)
Info    : 3D point insertion terminated (30 points created):
Info    :  - 0 Delaunay cavities modified for star shapeness
Info    :  - 0 points could not be inserted
Info    :  - 60 tetrahedra created in 0 sec. (-2147483648 tets/sec.)
Info    : Done meshing 3D (0 s)
Info    : 31 vertices 146 elements
Info    : Writing '../sphere_2.msh'...
Info    : Done writing '../sphere_2.msh'
Info    : Stopped on Tue Aug 11 16:10:35 2020
Total elements: 60 Size: 2695
p 6 Median iteration count 13.0 12 17
Info    : Running 'gmsh -3 ../sphere_2.geo' [Gmsh 2.10.1, 1 node, max. 1 thread]
Info    : Started on Tue Aug 11 16:11:11 2020
Info    : Reading '../sphere_2.geo'...
Info    : Done reading '../sphere_2.geo'
Info    : Meshing 1D...
Info    : Meshing curve 1 (Circle)
Info    : Meshing curve 2 (Circle)
Info    : Meshing curve 3 (Circle)
Info    : Meshing curve 4 (Circle)
Info    : Meshing curve 5 (Circle)
Info    : Meshing curve 6 (Circle)
Info    : Meshing curve 7 (Circle)
Info    : Meshing curve 8 (Circle)
Info    : Done meshing 1D (0 s)
Info    : Meshing 2D...
Info    : Meshing surface 10 (Ruled surface, MeshAdapt)
Info    : Meshing surface 12 (Ruled surface, MeshAdapt)
Info    : Meshing surface 14 (Ruled surface, MeshAdapt)
Info    : Meshing surface 16 (Ruled surface, MeshAdapt)
Info    : Meshing surface 18 (Ruled surface, MeshAdapt)
Info    : Done meshing 2D (0.0222411 s)
Info    : Meshing 3D...
Info    : Delaunay Meshing 1 volumes with 1 connected components
Info    : Meshing volume 20 (Delaunay)
Delaunizing vertices...
Delaunay seconds:  0.000178
Creating surface mesh ...
Surface mesh seconds:  6.4e-05
Recovering boundaries...
Boundary recovery seconds:  6.2e-05
Removing exterior tetrahedra ...
Exterior tets removal seconds:  1.5e-05
Recovering Delaunayness...
Delaunay recovery seconds:  3.5e-05
Optimizing mesh...
Optimization seconds:  2.2e-05

Writing nodes.
Writing elements.
Writing faces.
Writing edges.

Output seconds:  3e-05
Total running seconds:  0.000461

Statistics:

  Input points: 30
  Input facets: 56
  Input segments: 84
  Input holes: 0
  Input regions: 0

  Mesh points: 30
  Mesh tetrahedra: 60
  Mesh faces: 148
  Mesh edges: 117
  Mesh faces on facets: 56
  Mesh edges on segments: 84

Info    : 30 points 117 edges and 56 faces in the initial mesh
Info    : Found region 20
Info    : 0 points created - Worst tet radius is 0.855876 (PTS removed 0 0)
Info    : 3D point insertion terminated (30 points created):
Info    :  - 0 Delaunay cavities modified for star shapeness
Info    :  - 0 points could not be inserted
Info    :  - 60 tetrahedra created in 0 sec. (-2147483648 tets/sec.)
Info    : Done meshing 3D (0 s)
Info    : 31 vertices 146 elements
Info    : Writing '../sphere_2.msh'...
Info    : Done writing '../sphere_2.msh'
Info    : Stopped on Tue Aug 11 16:11:11 2020
Total elements: 60 Size: 6057
p 8 Median iteration count 11.0 11 15
Info    : Running 'gmsh -3 ../sphere_2.geo' [Gmsh 2.10.1, 1 node, max. 1 thread]
Info    : Started on Tue Aug 11 16:12:56 2020
Info    : Reading '../sphere_2.geo'...
Info    : Done reading '../sphere_2.geo'
Info    : Meshing 1D...
Info    : Meshing curve 1 (Circle)
Info    : Meshing curve 2 (Circle)
Info    : Meshing curve 3 (Circle)
Info    : Meshing curve 4 (Circle)
Info    : Meshing curve 5 (Circle)
Info    : Meshing curve 6 (Circle)
Info    : Meshing curve 7 (Circle)
Info    : Meshing curve 8 (Circle)
Info    : Done meshing 1D (0 s)
Info    : Meshing 2D...
Info    : Meshing surface 10 (Ruled surface, MeshAdapt)
Info    : Meshing surface 12 (Ruled surface, MeshAdapt)
Info    : Meshing surface 14 (Ruled surface, MeshAdapt)
Info    : Meshing surface 16 (Ruled surface, MeshAdapt)
Info    : Meshing surface 18 (Ruled surface, MeshAdapt)
Info    : Done meshing 2D (0.0212202 s)
Info    : Meshing 3D...
Info    : Delaunay Meshing 1 volumes with 1 connected components
Info    : Meshing volume 20 (Delaunay)
Delaunizing vertices...
Delaunay seconds:  0.000176
Creating surface mesh ...
Surface mesh seconds:  6.2e-05
Recovering boundaries...
Boundary recovery seconds:  6.4e-05
Removing exterior tetrahedra ...
Exterior tets removal seconds:  1.4e-05
Recovering Delaunayness...
Delaunay recovery seconds:  3.5e-05
Optimizing mesh...
Optimization seconds:  2.3e-05

Writing nodes.
Writing elements.
Writing faces.
Writing edges.

Output seconds:  3e-05
Total running seconds:  0.00046

Statistics:

  Input points: 30
  Input facets: 56
  Input segments: 84
  Input holes: 0
  Input regions: 0

  Mesh points: 30
  Mesh tetrahedra: 60
  Mesh faces: 148
  Mesh edges: 117
  Mesh faces on facets: 56
  Mesh edges on segments: 84

Info    : 30 points 117 edges and 56 faces in the initial mesh
Info    : Found region 20
Info    : 0 points created - Worst tet radius is 0.855876 (PTS removed 0 0)
Info    : 3D point insertion terminated (30 points created):
Info    :  - 0 Delaunay cavities modified for star shapeness
Info    :  - 0 points could not be inserted
Info    :  - 60 tetrahedra created in 0 sec. (-2147483648 tets/sec.)
Info    : Done meshing 3D (0 s)
Info    : 31 vertices 146 elements
Info    : Writing '../sphere_2.msh'...
Info    : Done writing '../sphere_2.msh'
Info    : Stopped on Tue Aug 11 16:12:56 2020
Total elements: 60 Size: 11451
p 10 Median iteration count 10.0 7 15

Process finished with exit code 0

/home/marshall/Documents/bernstein3d/venv/bin/python /home/marshall/Documents/bernstein3d/GrayScott/grayscott.py
Delta t of 1
Info    : Running 'gmsh -3 ../sphere_2.geo' [Gmsh 2.10.1, 1 node, max. 1 thread]
Info    : Started on Tue Aug 11 16:09:49 2020
Info    : Reading '../sphere_2.geo'...
Info    : Done reading '../sphere_2.geo'
Info    : Meshing 1D...
Info    : Meshing curve 1 (Circle)
Info    : Meshing curve 2 (Circle)
Info    : Meshing curve 3 (Circle)
Info    : Meshing curve 4 (Circle)
Info    : Meshing curve 5 (Circle)
Info    : Meshing curve 6 (Circle)
Info    : Meshing curve 7 (Circle)
Info    : Meshing curve 8 (Circle)
Info    : Done meshing 1D (0 s)
Info    : Meshing 2D...
Info    : Meshing surface 10 (Ruled surface, MeshAdapt)
Info    : Meshing surface 12 (Ruled surface, MeshAdapt)
Info    : Meshing surface 14 (Ruled surface, MeshAdapt)
Info    : Meshing surface 16 (Ruled surface, MeshAdapt)
Info    : Meshing surface 18 (Ruled surface, MeshAdapt)
Info    : Done meshing 2D (0.0176158 s)
Info    : Meshing 3D...
Info    : Delaunay Meshing 1 volumes with 1 connected components
Info    : Meshing volume 20 (Delaunay)
Delaunizing vertices...
Delaunay seconds:  0.000173
Creating surface mesh ...
Surface mesh seconds:  6.1e-05
Recovering boundaries...
Boundary recovery seconds:  6.3e-05
Removing exterior tetrahedra ...
Exterior tets removal seconds:  1.4e-05
Recovering Delaunayness...
Delaunay recovery seconds:  3.4e-05
Optimizing mesh...
Optimization seconds:  2.1e-05

Writing nodes.
Writing elements.
Writing faces.
Writing edges.

Output seconds:  2.8e-05
Total running seconds:  0.000437

Statistics:

  Input points: 30
  Input facets: 56
  Input segments: 84
  Input holes: 0
  Input regions: 0

  Mesh points: 30
  Mesh tetrahedra: 60
  Mesh faces: 148
  Mesh edges: 117
  Mesh faces on facets: 56
  Mesh edges on segments: 84

Info    : 30 points 117 edges and 56 faces in the initial mesh
Info    : Found region 20
Info    : 0 points created - Worst tet radius is 0.855876 (PTS removed 0 0)
Info    : 3D point insertion terminated (30 points created):
Info    :  - 0 Delaunay cavities modified for star shapeness
Info    :  - 0 points could not be inserted
Info    :  - 60 tetrahedra created in 0 sec. (-2147483648 tets/sec.)
Info    : Done meshing 3D (0 s)
Info    : 31 vertices 146 elements
Info    : Writing '../sphere_2.msh'...
Info    : Done writing '../sphere_2.msh'
Info    : Stopped on Tue Aug 11 16:09:49 2020
Total elements: 60 Size: 885
p 4 Median iteration count 96.0 90 131
Info    : Running 'gmsh -3 ../sphere_2.geo' [Gmsh 2.10.1, 1 node, max. 1 thread]
Info    : Started on Tue Aug 11 16:10:00 2020
Info    : Reading '../sphere_2.geo'...
Info    : Done reading '../sphere_2.geo'
Info    : Meshing 1D...
Info    : Meshing curve 1 (Circle)
Info    : Meshing curve 2 (Circle)
Info    : Meshing curve 3 (Circle)
Info    : Meshing curve 4 (Circle)
Info    : Meshing curve 5 (Circle)
Info    : Meshing curve 6 (Circle)
Info    : Meshing curve 7 (Circle)
Info    : Meshing curve 8 (Circle)
Info    : Done meshing 1D (0 s)
Info    : Meshing 2D...
Info    : Meshing surface 10 (Ruled surface, MeshAdapt)
Info    : Meshing surface 12 (Ruled surface, MeshAdapt)
Info    : Meshing surface 14 (Ruled surface, MeshAdapt)
Info    : Meshing surface 16 (Ruled surface, MeshAdapt)
Info    : Meshing surface 18 (Ruled surface, MeshAdapt)
Info    : Done meshing 2D (0.01736 s)
Info    : Meshing 3D...
Info    : Delaunay Meshing 1 volumes with 1 connected components
Info    : Meshing volume 20 (Delaunay)
Delaunizing vertices...
Delaunay seconds:  0.000178
Creating surface mesh ...
Surface mesh seconds:  6.1e-05
Recovering boundaries...
Boundary recovery seconds:  7.1e-05
Removing exterior tetrahedra ...
Exterior tets removal seconds:  1.4e-05
Recovering Delaunayness...
Delaunay recovery seconds:  4e-05
Optimizing mesh...
Optimization seconds:  2.2e-05

Writing nodes.
Writing elements.
Writing faces.
Writing edges.

Output seconds:  3.2e-05
Total running seconds:  0.000458

Statistics:

  Input points: 30
  Input facets: 56
  Input segments: 84
  Input holes: 0
  Input regions: 0

  Mesh points: 30
  Mesh tetrahedra: 60
  Mesh faces: 148
  Mesh edges: 117
  Mesh faces on facets: 56
  Mesh edges on segments: 84

Info    : 30 points 117 edges and 56 faces in the initial mesh
Info    : Found region 20
Info    : 0 points created - Worst tet radius is 0.855876 (PTS removed 0 0)
Info    : 3D point insertion terminated (30 points created):
Info    :  - 0 Delaunay cavities modified for star shapeness
Info    :  - 0 points could not be inserted
Info    :  - 60 tetrahedra created in 0 sec. (-2147483648 tets/sec.)
Info    : Done meshing 3D (0 s)
Info    : 31 vertices 146 elements
Info    : Writing '../sphere_2.msh'...
Info    : Done writing '../sphere_2.msh'
Info    : Stopped on Tue Aug 11 16:10:00 2020
Total elements: 60 Size: 2695
p 6 Median iteration count 317.0 285 443
Info    : Running 'gmsh -3 ../sphere_2.geo' [Gmsh 2.10.1, 1 node, max. 1 thread]
Info    : Started on Tue Aug 11 16:10:52 2020
Info    : Reading '../sphere_2.geo'...
Info    : Done reading '../sphere_2.geo'
Info    : Meshing 1D...
Info    : Meshing curve 1 (Circle)
Info    : Meshing curve 2 (Circle)
Info    : Meshing curve 3 (Circle)
Info    : Meshing curve 4 (Circle)
Info    : Meshing curve 5 (Circle)
Info    : Meshing curve 6 (Circle)
Info    : Meshing curve 7 (Circle)
Info    : Meshing curve 8 (Circle)
Info    : Done meshing 1D (0 s)
Info    : Meshing 2D...
Info    : Meshing surface 10 (Ruled surface, MeshAdapt)
Info    : Meshing surface 12 (Ruled surface, MeshAdapt)
Info    : Meshing surface 14 (Ruled surface, MeshAdapt)
Info    : Meshing surface 16 (Ruled surface, MeshAdapt)
Info    : Meshing surface 18 (Ruled surface, MeshAdapt)
Info    : Done meshing 2D (0.017884 s)
Info    : Meshing 3D...
Info    : Delaunay Meshing 1 volumes with 1 connected components
Info    : Meshing volume 20 (Delaunay)
Delaunizing vertices...
Delaunay seconds:  0.000168
Creating surface mesh ...
Surface mesh seconds:  5.1e-05
Recovering boundaries...
Boundary recovery seconds:  6.1e-05
Removing exterior tetrahedra ...
Exterior tets removal seconds:  1.3e-05
Recovering Delaunayness...
Delaunay recovery seconds:  3.7e-05
Optimizing mesh...
Optimization seconds:  2e-05

Writing nodes.
Writing elements.
Writing faces.
Writing edges.

Output seconds:  2.8e-05
Total running seconds:  0.000424

Statistics:

  Input points: 30
  Input facets: 56
  Input segments: 84
  Input holes: 0
  Input regions: 0

  Mesh points: 30
  Mesh tetrahedra: 60
  Mesh faces: 148
  Mesh edges: 117
  Mesh faces on facets: 56
  Mesh edges on segments: 84

Info    : 30 points 117 edges and 56 faces in the initial mesh
Info    : Found region 20
Info    : 0 points created - Worst tet radius is 0.855876 (PTS removed 0 0)
Info    : 3D point insertion terminated (30 points created):
Info    :  - 0 Delaunay cavities modified for star shapeness
Info    :  - 0 points could not be inserted
Info    :  - 60 tetrahedra created in 0 sec. (-2147483648 tets/sec.)
Info    : Done meshing 3D (0.004 s)
Info    : 31 vertices 146 elements
Info    : Writing '../sphere_2.msh'...
Info    : Done writing '../sphere_2.msh'
Info    : Stopped on Tue Aug 11 16:10:52 2020
Total elements: 60 Size: 6057
p 8 Median iteration count 974.5 814 1426
Info    : Running 'gmsh -3 ../sphere_2.geo' [Gmsh 2.10.1, 1 node, max. 1 thread]
Info    : Started on Tue Aug 11 16:17:54 2020
Info    : Reading '../sphere_2.geo'...
Info    : Done reading '../sphere_2.geo'
Info    : Meshing 1D...
Info    : Meshing curve 1 (Circle)
Info    : Meshing curve 2 (Circle)
Info    : Meshing curve 3 (Circle)
Info    : Meshing curve 4 (Circle)
Info    : Meshing curve 5 (Circle)
Info    : Meshing curve 6 (Circle)
Info    : Meshing curve 7 (Circle)
Info    : Meshing curve 8 (Circle)
Info    : Done meshing 1D (0 s)
Info    : Meshing 2D...
Info    : Meshing surface 10 (Ruled surface, MeshAdapt)
Info    : Meshing surface 12 (Ruled surface, MeshAdapt)
Info    : Meshing surface 14 (Ruled surface, MeshAdapt)
Info    : Meshing surface 16 (Ruled surface, MeshAdapt)
Info    : Meshing surface 18 (Ruled surface, MeshAdapt)
Info    : Done meshing 2D (0.026823 s)
Info    : Meshing 3D...
Info    : Delaunay Meshing 1 volumes with 1 connected components
Info    : Meshing volume 20 (Delaunay)
Delaunizing vertices...
Delaunay seconds:  0.000233
Creating surface mesh ...
Surface mesh seconds:  7.9e-05
Recovering boundaries...
Boundary recovery seconds:  8.7e-05
Removing exterior tetrahedra ...
Exterior tets removal seconds:  1.8e-05
Recovering Delaunayness...
Delaunay recovery seconds:  5e-05
Optimizing mesh...
Optimization seconds:  3.1e-05

Writing nodes.
Writing elements.
Writing faces.
Writing edges.

Output seconds:  3.6e-05
Total running seconds:  0.000601

Statistics:

  Input points: 30
  Input facets: 56
  Input segments: 84
  Input holes: 0
  Input regions: 0

  Mesh points: 30
  Mesh tetrahedra: 60
  Mesh faces: 148
  Mesh edges: 117
  Mesh faces on facets: 56
  Mesh edges on segments: 84

Info    : 30 points 117 edges and 56 faces in the initial mesh
Info    : Found region 20
Info    : 0 points created - Worst tet radius is 0.855876 (PTS removed 0 0)
Info    : 3D point insertion terminated (30 points created):
Info    :  - 0 Delaunay cavities modified for star shapeness
Info    :  - 0 points could not be inserted
Info    :  - 60 tetrahedra created in 0 sec. (-2147483648 tets/sec.)
Info    : Done meshing 3D (0 s)
Info    : 31 vertices 146 elements
Info    : Writing '../sphere_2.msh'...
Info    : Done writing '../sphere_2.msh'
Info    : Stopped on Tue Aug 11 16:17:54 2020
Total elements: 60 Size: 11451